-- Merging decision tree log ---
manifest
ADDED from /Users/muhtar/Public/ReactNative/test/SWApp/android/app/src/main/AndroidManifest.xml:1:1-26:12
INJECTED from /Users/muhtar/Public/ReactNative/test/SWApp/android/app/src/main/AndroidManifest.xml:1:1-26:12
INJECTED from /Users/muhtar/Public/ReactNative/test/SWApp/android/app/src/main/AndroidManifest.xml:1:1-26:12
INJECTED from /Users/muhtar/Public/ReactNative/test/SWApp/android/app/src/main/AndroidManifest.xml:1:1-26:12
MERGED from [:react-native-community_masked-view] /Users/muhtar/Public/ReactNative/test/SWApp/node_modules/@react-native-community/masked-view/android/build/intermediates/library_manifest/release/AndroidManifest.xml:2:1-9:12
MERGED from [:react-native-community_netinfo] /Users/muhtar/Public/ReactNative/test/SWApp/node_modules/@react-native-community/netinfo/android/build/intermediates/library_manifest/release/AndroidManifest.xml:2:1-12:12
MERGED from [:react-native-picker_picker] /Users/muhtar/Public/ReactNative/test/SWApp/node_modules/@react-native-picker/picker/android/build/intermediates/library_manifest/release/AndroidManifest.xml:2:1-9:12
MERGED from [:react-native-gesture-handler] /Users/muhtar/Public/ReactNative/test/SWApp/node_modules/react-native-gesture-handler/android/build/intermediates/library_manifest/release/AndroidManifest.xml:2:1-11:12
MERGED from [:react-native-reanimated] /Users/muhtar/Public/ReactNative/test/SWApp/node_modules/react-native-reanimated/android/build/intermediates/library_manifest/release/AndroidManifest.xml:2:1-11:12
MERGED from [:react-native-safe-area-context] /Users/muhtar/Public/ReactNative/test/SWApp/node_modules/react-native-safe-area-context/android/build/intermediates/library_manifest/release/AndroidManifest.xml:2:1-9:12
MERGED from [:react-native-screens] /Users/muhtar/Public/ReactNative/test/SWApp/node_modules/react-native-screens/android/build/intermediates/library_manifest/release/AndroidManifest.xml:2:1-11:12
MERGED from [com.facebook.react:react-native:0.63.4] /Users/muhtar/.gradle/caches/transforms-2/files-2.1/261438c368c0dce4ef15945058b1a722/jetified-react-native-0.63.4/AndroidManifest.xml:2:1-13:12
MERGED from [androidx.swiperefreshlayout:swiperefreshlayout:1.0.0] /Users/muhtar/.gradle/caches/transforms-2/files-2.1/5c64f35c4f864d4cd139ccbbff91ceb9/swiperefreshlayout-1.0.0/AndroidManifest.xml:17:1-22:12
MERGED from [org.webkit:android-jsc:r245459] /Users/muhtar/.gradle/caches/transforms-2/files-2.1/65337ca8c0783fc27be60d476a5f6b75/jetified-android-jsc-r245459/AndroidManifest.xml:2:1-11:12
MERGED from [com.google.android.material:material:1.1.0] /Users/muhtar/.gradle/caches/transforms-2/files-2.1/747f53e70e3372703b3570ac3dfbfb03/material-1.1.0/AndroidManifest.xml:17:1-24:12
MERGED from [androidx.appcompat:appcompat:1.1.0] /Users/muhtar/.gradle/caches/transforms-2/files-2.1/d14dbad7340cad958a2e361a440b498d/appcompat-1.1.0/AndroidManifest.xml:17:1-24:12
MERGED from [com.facebook.fresco:fresco:2.0.0] /Users/muhtar/.gradle/caches/transforms-2/files-2.1/af10ab7c86dccac0b0a6fed4a4a2ef8a/jetified-fresco-2.0.0/AndroidManifest.xml:2:1-9:12
MERGED from [com.facebook.fresco:imagepipeline-okhttp3:2.0.0] /Users/muhtar/.gradle/caches/transforms-2/files-2.1/f66a3370e9e4f8cb0ae0c6936c538c41/jetified-imagepipeline-okhttp3-2.0.0/AndroidManifest.xml:2:1-9:12
MERGED from [com.facebook.fresco:drawee:2.0.0] /Users/muhtar/.gradle/caches/transforms-2/files-2.1/a8747b5fe2ac330d81208218b145551b/jetified-drawee-2.0.0/AndroidManifest.xml:2:1-9:12
MERGED from [com.facebook.fresco:nativeimagefilters:2.0.0] /Users/muhtar/.gradle/caches/transforms-2/files-2.1/5b0ddb01960086bf88c6e0edf55c4c3a/jetified-nativeimagefilters-2.0.0/AndroidManifest.xml:2:1-9:12
MERGED from [com.facebook.fresco:imagepipeline:2.0.0] /Users/muhtar/.gradle/caches/transforms-2/files-2.1/5546f0b94d803dd5e13dfcefdd5d1515/jetified-imagepipeline-2.0.0/AndroidManifest.xml:2:1-9:12
MERGED from [com.facebook.fresco:nativeimagetranscoder:2.0.0] /Users/muhtar/.gradle/caches/transforms-2/files-2.1/331560ba5e5b4aada2d9e9c9b4b3d65c/jetified-nativeimagetranscoder-2.0.0/AndroidManifest.xml:2:1-9:12
MERGED from [com.facebook.fresco:imagepipeline-base:2.0.0] /Users/muhtar/.gradle/caches/transforms-2/files-2.1/7d46465bf33674cd40e6c214cd5887f6/jetified-imagepipeline-base-2.0.0/AndroidManifest.xml:2:1-9:12
MERGED from [com.facebook.soloader:soloader:0.9.0] /Users/muhtar/.gradle/caches/transforms-2/files-2.1/ac5fd67cb58caa87811091fdad4bcdf5/jetified-soloader-0.9.0/AndroidManifest.xml:2:1-13:12
MERGED from [androidx.appcompat:appcompat-resources:1.1.0] /Users/muhtar/.gradle/caches/transforms-2/files-2.1/baebfc24ee3e9d675a4614c1f27f118a/jetified-appcompat-resources-1.1.0/AndroidManifest.xml:17:1-24:12
MERGED from [androidx.vectordrawable:vectordrawable-animated:1.1.0] /Users/muhtar/.gradle/caches/transforms-2/files-2.1/2ee35bfe9d2e9019f071c4a047a96db2/vectordrawable-animated-1.1.0/AndroidManifest.xml:17:1-24:12
MERGED from [androidx.interpolator:interpolator:1.0.0] /Users/muhtar/.gradle/caches/transforms-2/files-2.1/6e0f82970a69a6b386ee45a08ac362fe/interpolator-1.0.0/AndroidManifest.xml:17:1-22:12
MERGED from [androidx.viewpager2:viewpager2:1.0.0] /Users/muhtar/.gradle/caches/transforms-2/files-2.1/803d31b2df2f8d968e6cb7c3ffa37ef9/jetified-viewpager2-1.0.0/AndroidManifest.xml:17:1-24:12
MERGED from [androidx.fragment:fragment:1.2.1] /Users/muhtar/.gradle/caches/transforms-2/files-2.1/5e5754defa7ec1b661ffd11a17838c67/fragment-1.2.1/AndroidManifest.xml:17:1-24:12
MERGED from [androidx.coordinatorlayout:coordinatorlayout:1.1.0] /Users/muhtar/.gradle/caches/transforms-2/files-2.1/3c1c25210c9523b781f68f6e5260d398/coordinatorlayout-1.1.0/AndroidManifest.xml:17:1-24:12
MERGED from [androidx.drawerlayout:drawerlayout:1.0.0] /Users/muhtar/.gradle/caches/transforms-2/files-2.1/22a5d9f52d495a432176451a4c4ba982/drawerlayout-1.0.0/AndroidManifest.xml:17:1-22:12
MERGED from [androidx.viewpager:viewpager:1.0.0] /Users/muhtar/.gradle/caches/transforms-2/files-2.1/2f70304b103eacfab05dbe55739e869f/viewpager-1.0.0/AndroidManifest.xml:17:1-22:12
MERGED from [androidx.loader:loader:1.0.0] /Users/muhtar/.gradle/caches/transforms-2/files-2.1/49dee3543bc65746b6bba9f83aa0b18a/loader-1.0.0/AndroidManifest.xml:17:1-22:12
MERGED from [androidx.activity:activity:1.1.0] /Users/muhtar/.gradle/caches/transforms-2/files-2.1/412f4e60090d6c7e949274f12fef4b1d/jetified-activity-1.1.0/AndroidManifest.xml:17:1-24:12
MERGED from [androidx.recyclerview:recyclerview:1.1.0] /Users/muhtar/.gradle/caches/transforms-2/files-2.1/c38f0dcdb4eabb88f8961812937ce545/recyclerview-1.1.0/AndroidManifest.xml:17:1-24:12
MERGED from [androidx.customview:customview:1.0.0] /Users/muhtar/.gradle/caches/transforms-2/files-2.1/86cf751735e9e9dd0416cce35c4a71a1/customview-1.0.0/AndroidManifest.xml:17:1-22:12
MERGED from [androidx.transition:transition:1.2.0] /Users/muhtar/.gradle/caches/transforms-2/files-2.1/ae1a1dddf9cea612695d8157e2ff38cd/transition-1.2.0/AndroidManifest.xml:17:1-24:12
MERGED from [androidx.vectordrawable:vectordrawable:1.1.0] /Users/muhtar/.gradle/caches/transforms-2/files-2.1/361553562ce35cf8cf447832c4a7d1ec/vectordrawable-1.1.0/AndroidManifest.xml:17:1-24:12
MERGED from [androidx.core:core:1.3.2] /Users/muhtar/.gradle/caches/transforms-2/files-2.1/f03ec885b8fabdebb4f0d3bbade5009e/core-1.3.2/AndroidManifest.xml:17:1-26:12
MERGED from [androidx.versionedparcelable:versionedparcelable:1.1.0] /Users/muhtar/.gradle/caches/transforms-2/files-2.1/af9af86a2035b10a0514f89f66cf8a9a/versionedparcelable-1.1.0/AndroidManifest.xml:17:1-27:12
MERGED from [androidx.cursoradapter:cursoradapter:1.0.0] /Users/muhtar/.gradle/caches/transforms-2/files-2.1/bae4382a703142a8f82a100a412243f1/cursoradapter-1.0.0/AndroidManifest.xml:17:1-22:12
MERGED from [androidx.lifecycle:lifecycle-viewmodel-savedstate:2.2.0] /Users/muhtar/.gradle/caches/transforms-2/files-2.1/cbff631e500aff82164944184b49a648/jetified-lifecycle-viewmodel-savedstate-2.2.0/AndroidManifest.xml:17:1-24:12
MERGED from [androidx.lifecycle:lifecycle-viewmodel:2.2.0] /Users/muhtar/.gradle/caches/transforms-2/files-2.1/5af1825acc1d96709826d913b19b2820/lifecycle-viewmodel-2.2.0/AndroidManifest.xml:17:1-24:12
MERGED from [androidx.cardview:cardview:1.0.0] /Users/muhtar/.gradle/caches/transforms-2/files-2.1/dcc76cd07ebcaa6166d73d461b1667fa/cardview-1.0.0/AndroidManifest.xml:17:1-22:12
MERGED from [androidx.lifecycle:lifecycle-runtime:2.2.0] /Users/muhtar/.gradle/caches/transforms-2/files-2.1/b37a656be7da34e79d326523a32fbcaa/lifecycle-runtime-2.2.0/AndroidManifest.xml:17:1-24:12
MERGED from [androidx.savedstate:savedstate:1.0.0] /Users/muhtar/.gradle/caches/transforms-2/files-2.1/29e9e6ac99026fff5bb21139b2ad74ac/jetified-savedstate-1.0.0/AndroidManifest.xml:17:1-24:12
MERGED from [androidx.lifecycle:lifecycle-livedata:2.0.0] /Users/muhtar/.gradle/caches/transforms-2/files-2.1/15faa7fdc535e832982b4615d300cb77/lifecycle-livedata-2.0.0/AndroidManifest.xml:17:1-22:12
MERGED from [androidx.lifecycle:lifecycle-livedata-core:2.2.0] /Users/muhtar/.gradle/caches/transforms-2/files-2.1/27e0ecfbdce6f985a506017f5fd54aeb/lifecycle-livedata-core-2.2.0/AndroidManifest.xml:17:1-24:12
MERGED from [androidx.arch.core:core-runtime:2.1.0] /Users/muhtar/.gradle/caches/transforms-2/files-2.1/268ebc0b2bd661fb18fff0cceeca14c7/core-runtime-2.1.0/AndroidManifest.xml:17:1-24:12
MERGED from [com.facebook.fresco:fbcore:2.0.0] /Users/muhtar/.gradle/caches/transforms-2/files-2.1/1d2be8689e9befa54c912fb5525227ee/jetified-fbcore-2.0.0/AndroidManifest.xml:2:1-9:12
INJECTED from /Users/muhtar/Public/ReactNative/test/SWApp/android/app/src/main/AndroidManifest.xml:1:1-26:12
INJECTED from /Users/muhtar/Public/ReactNative/test/SWApp/android/app/src/main/AndroidManifest.xml:1:1-26:12
INJECTED from /Users/muhtar/Public/ReactNative/test/SWApp/android/app/src/main/AndroidManifest.xml:1:1-26:12
	package
		ADDED from /Users/muhtar/Public/ReactNative/test/SWApp/android/app/src/main/AndroidManifest.xml:2:3-22
		INJECTED from /Users/muhtar/Public/ReactNative/test/SWApp/android/app/src/main/AndroidManifest.xml
		INJECTED from /Users/muhtar/Public/ReactNative/test/SWApp/android/app/src/main/AndroidManifest.xml
	android:versionName
		INJECTED from /Users/muhtar/Public/ReactNative/test/SWApp/android/app/src/main/AndroidManifest.xml
		ADDED from /Users/muhtar/Public/ReactNative/test/SWApp/android/app/src/main/AndroidManifest.xml:1:1-26:12
		INJECTED from /Users/muhtar/Public/ReactNative/test/SWApp/android/app/src/main/AndroidManifest.xml
	android:versionCode
		INJECTED from /Users/muhtar/Public/ReactNative/test/SWApp/android/app/src/main/AndroidManifest.xml
		ADDED from /Users/muhtar/Public/ReactNative/test/SWApp/android/app/src/main/AndroidManifest.xml:1:1-26:12
		INJECTED from /Users/muhtar/Public/ReactNative/test/SWApp/android/app/src/main/AndroidManifest.xml
	xmlns:android
		ADDED from /Users/muhtar/Public/ReactNative/test/SWApp/android/app/src/main/AndroidManifest.xml:1:11-69
uses-permission#android.permission.INTERNET
ADDED from /Users/muhtar/Public/ReactNative/test/SWApp/android/app/src/main/AndroidManifest.xml:4:5-67
	android:name
		ADDED from /Users/muhtar/Public/ReactNative/test/SWApp/android/app/src/main/AndroidManifest.xml:4:22-64
application
ADDED from /Users/muhtar/Public/ReactNative/test/SWApp/android/app/src/main/AndroidManifest.xml:6:5-25:19
MERGED from [com.facebook.react:react-native:0.63.4] /Users/muhtar/.gradle/caches/transforms-2/files-2.1/261438c368c0dce4ef15945058b1a722/jetified-react-native-0.63.4/AndroidManifest.xml:11:5-20
MERGED from [com.facebook.react:react-native:0.63.4] /Users/muhtar/.gradle/caches/transforms-2/files-2.1/261438c368c0dce4ef15945058b1a722/jetified-react-native-0.63.4/AndroidManifest.xml:11:5-20
MERGED from [com.google.android.material:material:1.1.0] /Users/muhtar/.gradle/caches/transforms-2/files-2.1/747f53e70e3372703b3570ac3dfbfb03/material-1.1.0/AndroidManifest.xml:22:5-20
MERGED from [com.google.android.material:material:1.1.0] /Users/muhtar/.gradle/caches/transforms-2/files-2.1/747f53e70e3372703b3570ac3dfbfb03/material-1.1.0/AndroidManifest.xml:22:5-20
MERGED from [com.facebook.soloader:soloader:0.9.0] /Users/muhtar/.gradle/caches/transforms-2/files-2.1/ac5fd67cb58caa87811091fdad4bcdf5/jetified-soloader-0.9.0/AndroidManifest.xml:11:5-20
MERGED from [com.facebook.soloader:soloader:0.9.0] /Users/muhtar/.gradle/caches/transforms-2/files-2.1/ac5fd67cb58caa87811091fdad4bcdf5/jetified-soloader-0.9.0/AndroidManifest.xml:11:5-20
MERGED from [androidx.core:core:1.3.2] /Users/muhtar/.gradle/caches/transforms-2/files-2.1/f03ec885b8fabdebb4f0d3bbade5009e/core-1.3.2/AndroidManifest.xml:24:5-89
MERGED from [androidx.core:core:1.3.2] /Users/muhtar/.gradle/caches/transforms-2/files-2.1/f03ec885b8fabdebb4f0d3bbade5009e/core-1.3.2/AndroidManifest.xml:24:5-89
MERGED from [androidx.versionedparcelable:versionedparcelable:1.1.0] /Users/muhtar/.gradle/caches/transforms-2/files-2.1/af9af86a2035b10a0514f89f66cf8a9a/versionedparcelable-1.1.0/AndroidManifest.xml:24:5-25:19
MERGED from [androidx.versionedparcelable:versionedparcelable:1.1.0] /Users/muhtar/.gradle/caches/transforms-2/files-2.1/af9af86a2035b10a0514f89f66cf8a9a/versionedparcelable-1.1.0/AndroidManifest.xml:24:5-25:19
	android:appComponentFactory
		ADDED from [androidx.core:core:1.3.2] /Users/muhtar/.gradle/caches/transforms-2/files-2.1/f03ec885b8fabdebb4f0d3bbade5009e/core-1.3.2/AndroidManifest.xml:24:18-86
	android:label
		ADDED from /Users/muhtar/Public/ReactNative/test/SWApp/android/app/src/main/AndroidManifest.xml:8:7-39
	android:roundIcon
		ADDED from /Users/muhtar/Public/ReactNative/test/SWApp/android/app/src/main/AndroidManifest.xml:10:7-46
	android:icon
		ADDED from /Users/muhtar/Public/ReactNative/test/SWApp/android/app/src/main/AndroidManifest.xml:9:7-41
	android:allowBackup
		ADDED from /Users/muhtar/Public/ReactNative/test/SWApp/android/app/src/main/AndroidManifest.xml:12:7-34
	android:theme
		ADDED from /Users/muhtar/Public/ReactNative/test/SWApp/android/app/src/main/AndroidManifest.xml:13:7-38
	android:usesCleartextTraffic
		ADDED from /Users/muhtar/Public/ReactNative/test/SWApp/android/app/src/main/AndroidManifest.xml:11:7-42
	android:name
		ADDED from /Users/muhtar/Public/ReactNative/test/SWApp/android/app/src/main/AndroidManifest.xml:7:7-38
activity#com.swapp.MainActivity
ADDED from /Users/muhtar/Public/ReactNative/test/SWApp/android/app/src/main/AndroidManifest.xml:14:7-24:18
	android:label
		ADDED from /Users/muhtar/Public/ReactNative/test/SWApp/android/app/src/main/AndroidManifest.xml:16:9-41
	android:launchMode
		ADDED from /Users/muhtar/Public/ReactNative/test/SWApp/android/app/src/main/AndroidManifest.xml:18:9-40
	android:windowSoftInputMode
		ADDED from /Users/muhtar/Public/ReactNative/test/SWApp/android/app/src/main/AndroidManifest.xml:19:9-51
	android:configChanges
		ADDED from /Users/muhtar/Public/ReactNative/test/SWApp/android/app/src/main/AndroidManifest.xml:17:9-86
	android:name
		ADDED from /Users/muhtar/Public/ReactNative/test/SWApp/android/app/src/main/AndroidManifest.xml:15:9-37
intent-filter#action:name:android.intent.action.MAIN+category:name:android.intent.category.LAUNCHER
ADDED from /Users/muhtar/Public/ReactNative/test/SWApp/android/app/src/main/AndroidManifest.xml:20:9-23:25
action#android.intent.action.MAIN
ADDED from /Users/muhtar/Public/ReactNative/test/SWApp/android/app/src/main/AndroidManifest.xml:21:13-65
	android:name
		ADDED from /Users/muhtar/Public/ReactNative/test/SWApp/android/app/src/main/AndroidManifest.xml:21:21-62
category#android.intent.category.LAUNCHER
ADDED from /Users/muhtar/Public/ReactNative/test/SWApp/android/app/src/main/AndroidManifest.xml:22:13-73
	android:name
		ADDED from /Users/muhtar/Public/ReactNative/test/SWApp/android/app/src/main/AndroidManifest.xml:22:23-70
uses-sdk
INJECTED from /Users/muhtar/Public/ReactNative/test/SWApp/android/app/src/main/AndroidManifest.xml reason: use-sdk injection requested
INJECTED from /Users/muhtar/Public/ReactNative/test/SWApp/android/app/src/main/AndroidManifest.xml
INJECTED from /Users/muhtar/Public/ReactNative/test/SWApp/android/app/src/main/AndroidManifest.xml
MERGED from [:react-native-community_masked-view] /Users/muhtar/Public/ReactNative/test/SWApp/node_modules/@react-native-community/masked-view/android/build/intermediates/library_manifest/release/AndroidManifest.xml:5:5-7:41
MERGED from [:react-native-community_masked-view] /Users/muhtar/Public/ReactNative/test/SWApp/node_modules/@react-native-community/masked-view/android/build/intermediates/library_manifest/release/AndroidManifest.xml:5:5-7:41
MERGED from [:react-native-community_netinfo] /Users/muhtar/Public/ReactNative/test/SWApp/node_modules/@react-native-community/netinfo/android/build/intermediates/library_manifest/release/AndroidManifest.xml:5:5-7:41
MERGED from [:react-native-community_netinfo] /Users/muhtar/Public/ReactNative/test/SWApp/node_modules/@react-native-community/netinfo/android/build/intermediates/library_manifest/release/AndroidManifest.xml:5:5-7:41
MERGED from [:react-native-picker_picker] /Users/muhtar/Public/ReactNative/test/SWApp/node_modules/@react-native-picker/picker/android/build/intermediates/library_manifest/release/AndroidManifest.xml:5:5-7:41
MERGED from [:react-native-picker_picker] /Users/muhtar/Public/ReactNative/test/SWApp/node_modules/@react-native-picker/picker/android/build/intermediates/library_manifest/release/AndroidManifest.xml:5:5-7:41
MERGED from [:react-native-gesture-handler] /Users/muhtar/Public/ReactNative/test/SWApp/node_modules/react-native-gesture-handler/android/build/intermediates/library_manifest/release/AndroidManifest.xml:7:5-9:41
MERGED from [:react-native-gesture-handler] /Users/muhtar/Public/ReactNative/test/SWApp/node_modules/react-native-gesture-handler/android/build/intermediates/library_manifest/release/AndroidManifest.xml:7:5-9:41
MERGED from [:react-native-reanimated] /Users/muhtar/Public/ReactNative/test/SWApp/node_modules/react-native-reanimated/android/build/intermediates/library_manifest/release/AndroidManifest.xml:7:5-9:41
MERGED from [:react-native-reanimated] /Users/muhtar/Public/ReactNative/test/SWApp/node_modules/react-native-reanimated/android/build/intermediates/library_manifest/release/AndroidManifest.xml:7:5-9:41
MERGED from [:react-native-safe-area-context] /Users/muhtar/Public/ReactNative/test/SWApp/node_modules/react-native-safe-area-context/android/build/intermediates/library_manifest/release/AndroidManifest.xml:5:5-7:41
MERGED from [:react-native-safe-area-context] /Users/muhtar/Public/ReactNative/test/SWApp/node_modules/react-native-safe-area-context/android/build/intermediates/library_manifest/release/AndroidManifest.xml:5:5-7:41
MERGED from [:react-native-screens] /Users/muhtar/Public/ReactNative/test/SWApp/node_modules/react-native-screens/android/build/intermediates/library_manifest/release/AndroidManifest.xml:7:5-9:41
MERGED from [:react-native-screens] /Users/muhtar/Public/ReactNative/test/SWApp/node_modules/react-native-screens/android/build/intermediates/library_manifest/release/AndroidManifest.xml:7:5-9:41
MERGED from [com.facebook.react:react-native:0.63.4] /Users/muhtar/.gradle/caches/transforms-2/files-2.1/261438c368c0dce4ef15945058b1a722/jetified-react-native-0.63.4/AndroidManifest.xml:7:5-9:41
MERGED from [com.facebook.react:react-native:0.63.4] /Users/muhtar/.gradle/caches/transforms-2/files-2.1/261438c368c0dce4ef15945058b1a722/jetified-react-native-0.63.4/AndroidManifest.xml:7:5-9:41
MERGED from [androidx.swiperefreshlayout:swiperefreshlayout:1.0.0] /Users/muhtar/.gradle/caches/transforms-2/files-2.1/5c64f35c4f864d4cd139ccbbff91ceb9/swiperefreshlayout-1.0.0/AndroidManifest.xml:20:5-44
MERGED from [androidx.swiperefreshlayout:swiperefreshlayout:1.0.0] /Users/muhtar/.gradle/caches/transforms-2/files-2.1/5c64f35c4f864d4cd139ccbbff91ceb9/swiperefreshlayout-1.0.0/AndroidManifest.xml:20:5-44
MERGED from [org.webkit:android-jsc:r245459] /Users/muhtar/.gradle/caches/transforms-2/files-2.1/65337ca8c0783fc27be60d476a5f6b75/jetified-android-jsc-r245459/AndroidManifest.xml:7:5-9:41
MERGED from [org.webkit:android-jsc:r245459] /Users/muhtar/.gradle/caches/transforms-2/files-2.1/65337ca8c0783fc27be60d476a5f6b75/jetified-android-jsc-r245459/AndroidManifest.xml:7:5-9:41
MERGED from [com.google.android.material:material:1.1.0] /Users/muhtar/.gradle/caches/transforms-2/files-2.1/747f53e70e3372703b3570ac3dfbfb03/material-1.1.0/AndroidManifest.xml:20:5-44
MERGED from [com.google.android.material:material:1.1.0] /Users/muhtar/.gradle/caches/transforms-2/files-2.1/747f53e70e3372703b3570ac3dfbfb03/material-1.1.0/AndroidManifest.xml:20:5-44
MERGED from [androidx.appcompat:appcompat:1.1.0] /Users/muhtar/.gradle/caches/transforms-2/files-2.1/d14dbad7340cad958a2e361a440b498d/appcompat-1.1.0/AndroidManifest.xml:20:5-22:41
MERGED from [androidx.appcompat:appcompat:1.1.0] /Users/muhtar/.gradle/caches/transforms-2/files-2.1/d14dbad7340cad958a2e361a440b498d/appcompat-1.1.0/AndroidManifest.xml:20:5-22:41
MERGED from [com.facebook.fresco:fresco:2.0.0] /Users/muhtar/.gradle/caches/transforms-2/files-2.1/af10ab7c86dccac0b0a6fed4a4a2ef8a/jetified-fresco-2.0.0/AndroidManifest.xml:5:5-7:41
MERGED from [com.facebook.fresco:fresco:2.0.0] /Users/muhtar/.gradle/caches/transforms-2/files-2.1/af10ab7c86dccac0b0a6fed4a4a2ef8a/jetified-fresco-2.0.0/AndroidManifest.xml:5:5-7:41
MERGED from [com.facebook.fresco:imagepipeline-okhttp3:2.0.0] /Users/muhtar/.gradle/caches/transforms-2/files-2.1/f66a3370e9e4f8cb0ae0c6936c538c41/jetified-imagepipeline-okhttp3-2.0.0/AndroidManifest.xml:5:5-7:41
MERGED from [com.facebook.fresco:imagepipeline-okhttp3:2.0.0] /Users/muhtar/.gradle/caches/transforms-2/files-2.1/f66a3370e9e4f8cb0ae0c6936c538c41/jetified-imagepipeline-okhttp3-2.0.0/AndroidManifest.xml:5:5-7:41
MERGED from [com.facebook.fresco:drawee:2.0.0] /Users/muhtar/.gradle/caches/transforms-2/files-2.1/a8747b5fe2ac330d81208218b145551b/jetified-drawee-2.0.0/AndroidManifest.xml:5:5-7:41
MERGED from [com.facebook.fresco:drawee:2.0.0] /Users/muhtar/.gradle/caches/transforms-2/files-2.1/a8747b5fe2ac330d81208218b145551b/jetified-drawee-2.0.0/AndroidManifest.xml:5:5-7:41
MERGED from [com.facebook.fresco:nativeimagefilters:2.0.0] /Users/muhtar/.gradle/caches/transforms-2/files-2.1/5b0ddb01960086bf88c6e0edf55c4c3a/jetified-nativeimagefilters-2.0.0/AndroidManifest.xml:5:5-7:41
MERGED from [com.facebook.fresco:nativeimagefilters:2.0.0] /Users/muhtar/.gradle/caches/transforms-2/files-2.1/5b0ddb01960086bf88c6e0edf55c4c3a/jetified-nativeimagefilters-2.0.0/AndroidManifest.xml:5:5-7:41
MERGED from [com.facebook.fresco:imagepipeline:2.0.0] /Users/muhtar/.gradle/caches/transforms-2/files-2.1/5546f0b94d803dd5e13dfcefdd5d1515/jetified-imagepipeline-2.0.0/AndroidManifest.xml:5:5-7:41
MERGED from [com.facebook.fresco:imagepipeline:2.0.0] /Users/muhtar/.gradle/caches/transforms-2/files-2.1/5546f0b94d803dd5e13dfcefdd5d1515/jetified-imagepipeline-2.0.0/AndroidManifest.xml:5:5-7:41
MERGED from [com.facebook.fresco:nativeimagetranscoder:2.0.0] /Users/muhtar/.gradle/caches/transforms-2/files-2.1/331560ba5e5b4aada2d9e9c9b4b3d65c/jetified-nativeimagetranscoder-2.0.0/AndroidManifest.xml:5:5-7:41
MERGED from [com.facebook.fresco:nativeimagetranscoder:2.0.0] /Users/muhtar/.gradle/caches/transforms-2/files-2.1/331560ba5e5b4aada2d9e9c9b4b3d65c/jetified-nativeimagetranscoder-2.0.0/AndroidManifest.xml:5:5-7:41
MERGED from [com.facebook.fresco:imagepipeline-base:2.0.0] /Users/muhtar/.gradle/caches/transforms-2/files-2.1/7d46465bf33674cd40e6c214cd5887f6/jetified-imagepipeline-base-2.0.0/AndroidManifest.xml:5:5-7:41
MERGED from [com.facebook.fresco:imagepipeline-base:2.0.0] /Users/muhtar/.gradle/caches/transforms-2/files-2.1/7d46465bf33674cd40e6c214cd5887f6/jetified-imagepipeline-base-2.0.0/AndroidManifest.xml:5:5-7:41
MERGED from [com.facebook.soloader:soloader:0.9.0] /Users/muhtar/.gradle/caches/transforms-2/files-2.1/ac5fd67cb58caa87811091fdad4bcdf5/jetified-soloader-0.9.0/AndroidManifest.xml:7:5-9:41
MERGED from [com.facebook.soloader:soloader:0.9.0] /Users/muhtar/.gradle/caches/transforms-2/files-2.1/ac5fd67cb58caa87811091fdad4bcdf5/jetified-soloader-0.9.0/AndroidManifest.xml:7:5-9:41
MERGED from [androidx.appcompat:appcompat-resources:1.1.0] /Users/muhtar/.gradle/caches/transforms-2/files-2.1/baebfc24ee3e9d675a4614c1f27f118a/jetified-appcompat-resources-1.1.0/AndroidManifest.xml:20:5-22:41
MERGED from [androidx.appcompat:appcompat-resources:1.1.0] /Users/muhtar/.gradle/caches/transforms-2/files-2.1/baebfc24ee3e9d675a4614c1f27f118a/jetified-appcompat-resources-1.1.0/AndroidManifest.xml:20:5-22:41
MERGED from [androidx.vectordrawable:vectordrawable-animated:1.1.0] /Users/muhtar/.gradle/caches/transforms-2/files-2.1/2ee35bfe9d2e9019f071c4a047a96db2/vectordrawable-animated-1.1.0/AndroidManifest.xml:20:5-22:41
MERGED from [androidx.vectordrawable:vectordrawable-animated:1.1.0] /Users/muhtar/.gradle/caches/transforms-2/files-2.1/2ee35bfe9d2e9019f071c4a047a96db2/vectordrawable-animated-1.1.0/AndroidManifest.xml:20:5-22:41
MERGED from [androidx.interpolator:interpolator:1.0.0] /Users/muhtar/.gradle/caches/transforms-2/files-2.1/6e0f82970a69a6b386ee45a08ac362fe/interpolator-1.0.0/AndroidManifest.xml:20:5-44
MERGED from [androidx.interpolator:interpolator:1.0.0] /Users/muhtar/.gradle/caches/transforms-2/files-2.1/6e0f82970a69a6b386ee45a08ac362fe/interpolator-1.0.0/AndroidManifest.xml:20:5-44
MERGED from [androidx.viewpager2:viewpager2:1.0.0] /Users/muhtar/.gradle/caches/transforms-2/files-2.1/803d31b2df2f8d968e6cb7c3ffa37ef9/jetified-viewpager2-1.0.0/AndroidManifest.xml:20:5-22:41
MERGED from [androidx.viewpager2:viewpager2:1.0.0] /Users/muhtar/.gradle/caches/transforms-2/files-2.1/803d31b2df2f8d968e6cb7c3ffa37ef9/jetified-viewpager2-1.0.0/AndroidManifest.xml:20:5-22:41
MERGED from [androidx.fragment:fragment:1.2.1] /Users/muhtar/.gradle/caches/transforms-2/files-2.1/5e5754defa7ec1b661ffd11a17838c67/fragment-1.2.1/AndroidManifest.xml:20:5-22:41
MERGED from [androidx.fragment:fragment:1.2.1] /Users/muhtar/.gradle/caches/transforms-2/files-2.1/5e5754defa7ec1b661ffd11a17838c67/fragment-1.2.1/AndroidManifest.xml:20:5-22:41
MERGED from [androidx.coordinatorlayout:coordinatorlayout:1.1.0] /Users/muhtar/.gradle/caches/transforms-2/files-2.1/3c1c25210c9523b781f68f6e5260d398/coordinatorlayout-1.1.0/AndroidManifest.xml:20:5-22:41
MERGED from [androidx.coordinatorlayout:coordinatorlayout:1.1.0] /Users/muhtar/.gradle/caches/transforms-2/files-2.1/3c1c25210c9523b781f68f6e5260d398/coordinatorlayout-1.1.0/AndroidManifest.xml:20:5-22:41
MERGED from [androidx.drawerlayout:drawerlayout:1.0.0] /Users/muhtar/.gradle/caches/transforms-2/files-2.1/22a5d9f52d495a432176451a4c4ba982/drawerlayout-1.0.0/AndroidManifest.xml:20:5-44
MERGED from [androidx.drawerlayout:drawerlayout:1.0.0] /Users/muhtar/.gradle/caches/transforms-2/files-2.1/22a5d9f52d495a432176451a4c4ba982/drawerlayout-1.0.0/AndroidManifest.xml:20:5-44
MERGED from [androidx.viewpager:viewpager:1.0.0] /Users/muhtar/.gradle/caches/transforms-2/files-2.1/2f70304b103eacfab05dbe55739e869f/viewpager-1.0.0/AndroidManifest.xml:20:5-44
MERGED from [androidx.viewpager:viewpager:1.0.0] /Users/muhtar/.gradle/caches/transforms-2/files-2.1/2f70304b103eacfab05dbe55739e869f/viewpager-1.0.0/AndroidManifest.xml:20:5-44
MERGED from [androidx.loader:loader:1.0.0] /Users/muhtar/.gradle/caches/transforms-2/files-2.1/49dee3543bc65746b6bba9f83aa0b18a/loader-1.0.0/AndroidManifest.xml:20:5-44
MERGED from [androidx.loader:loader:1.0.0] /Users/muhtar/.gradle/caches/transforms-2/files-2.1/49dee3543bc65746b6bba9f83aa0b18a/loader-1.0.0/AndroidManifest.xml:20:5-44
MERGED from [androidx.activity:activity:1.1.0] /Users/muhtar/.gradle/caches/transforms-2/files-2.1/412f4e60090d6c7e949274f12fef4b1d/jetified-activity-1.1.0/AndroidManifest.xml:20:5-22:41
MERGED from [androidx.activity:activity:1.1.0] /Users/muhtar/.gradle/caches/transforms-2/files-2.1/412f4e60090d6c7e949274f12fef4b1d/jetified-activity-1.1.0/AndroidManifest.xml:20:5-22:41
MERGED from [androidx.recyclerview:recyclerview:1.1.0] /Users/muhtar/.gradle/caches/transforms-2/files-2.1/c38f0dcdb4eabb88f8961812937ce545/recyclerview-1.1.0/AndroidManifest.xml:20:5-22:41
MERGED from [androidx.recyclerview:recyclerview:1.1.0] /Users/muhtar/.gradle/caches/transforms-2/files-2.1/c38f0dcdb4eabb88f8961812937ce545/recyclerview-1.1.0/AndroidManifest.xml:20:5-22:41
MERGED from [androidx.customview:customview:1.0.0] /Users/muhtar/.gradle/caches/transforms-2/files-2.1/86cf751735e9e9dd0416cce35c4a71a1/customview-1.0.0/AndroidManifest.xml:20:5-44
MERGED from [androidx.customview:customview:1.0.0] /Users/muhtar/.gradle/caches/transforms-2/files-2.1/86cf751735e9e9dd0416cce35c4a71a1/customview-1.0.0/AndroidManifest.xml:20:5-44
MERGED from [androidx.transition:transition:1.2.0] /Users/muhtar/.gradle/caches/transforms-2/files-2.1/ae1a1dddf9cea612695d8157e2ff38cd/transition-1.2.0/AndroidManifest.xml:20:5-22:41
MERGED from [androidx.transition:transition:1.2.0] /Users/muhtar/.gradle/caches/transforms-2/files-2.1/ae1a1dddf9cea612695d8157e2ff38cd/transition-1.2.0/AndroidManifest.xml:20:5-22:41
MERGED from [androidx.vectordrawable:vectordrawable:1.1.0] /Users/muhtar/.gradle/caches/transforms-2/files-2.1/361553562ce35cf8cf447832c4a7d1ec/vectordrawable-1.1.0/AndroidManifest.xml:20:5-22:41
MERGED from [androidx.vectordrawable:vectordrawable:1.1.0] /Users/muhtar/.gradle/caches/transforms-2/files-2.1/361553562ce35cf8cf447832c4a7d1ec/vectordrawable-1.1.0/AndroidManifest.xml:20:5-22:41
MERGED from [androidx.core:core:1.3.2] /Users/muhtar/.gradle/caches/transforms-2/files-2.1/f03ec885b8fabdebb4f0d3bbade5009e/core-1.3.2/AndroidManifest.xml:20:5-22:41
MERGED from [androidx.core:core:1.3.2] /Users/muhtar/.gradle/caches/transforms-2/files-2.1/f03ec885b8fabdebb4f0d3bbade5009e/core-1.3.2/AndroidManifest.xml:20:5-22:41
MERGED from [androidx.versionedparcelable:versionedparcelable:1.1.0] /Users/muhtar/.gradle/caches/transforms-2/files-2.1/af9af86a2035b10a0514f89f66cf8a9a/versionedparcelable-1.1.0/AndroidManifest.xml:20:5-22:41
MERGED from [androidx.versionedparcelable:versionedparcelable:1.1.0] /Users/muhtar/.gradle/caches/transforms-2/files-2.1/af9af86a2035b10a0514f89f66cf8a9a/versionedparcelable-1.1.0/AndroidManifest.xml:20:5-22:41
MERGED from [androidx.cursoradapter:cursoradapter:1.0.0] /Users/muhtar/.gradle/caches/transforms-2/files-2.1/bae4382a703142a8f82a100a412243f1/cursoradapter-1.0.0/AndroidManifest.xml:20:5-44
MERGED from [androidx.cursoradapter:cursoradapter:1.0.0] /Users/muhtar/.gradle/caches/transforms-2/files-2.1/bae4382a703142a8f82a100a412243f1/cursoradapter-1.0.0/AndroidManifest.xml:20:5-44
MERGED from [androidx.lifecycle:lifecycle-viewmodel-savedstate:2.2.0] /Users/muhtar/.gradle/caches/transforms-2/files-2.1/cbff631e500aff82164944184b49a648/jetified-lifecycle-viewmodel-savedstate-2.2.0/AndroidManifest.xml:20:5-22:41
MERGED from [androidx.lifecycle:lifecycle-viewmodel-savedstate:2.2.0] /Users/muhtar/.gradle/caches/transforms-2/files-2.1/cbff631e500aff82164944184b49a648/jetified-lifecycle-viewmodel-savedstate-2.2.0/AndroidManifest.xml:20:5-22:41
MERGED from [androidx.lifecycle:lifecycle-viewmodel:2.2.0] /Users/muhtar/.gradle/caches/transforms-2/files-2.1/5af1825acc1d96709826d913b19b2820/lifecycle-viewmodel-2.2.0/AndroidManifest.xml:20:5-22:41
MERGED from [androidx.lifecycle:lifecycle-viewmodel:2.2.0] /Users/muhtar/.gradle/caches/transforms-2/files-2.1/5af1825acc1d96709826d913b19b2820/lifecycle-viewmodel-2.2.0/AndroidManifest.xml:20:5-22:41
MERGED from [androidx.cardview:cardview:1.0.0] /Users/muhtar/.gradle/caches/transforms-2/files-2.1/dcc76cd07ebcaa6166d73d461b1667fa/cardview-1.0.0/AndroidManifest.xml:20:5-44
MERGED from [androidx.cardview:cardview:1.0.0] /Users/muhtar/.gradle/caches/transforms-2/files-2.1/dcc76cd07ebcaa6166d73d461b1667fa/cardview-1.0.0/AndroidManifest.xml:20:5-44
MERGED from [androidx.lifecycle:lifecycle-runtime:2.2.0] /Users/muhtar/.gradle/caches/transforms-2/files-2.1/b37a656be7da34e79d326523a32fbcaa/lifecycle-runtime-2.2.0/AndroidManifest.xml:20:5-22:41
MERGED from [androidx.lifecycle:lifecycle-runtime:2.2.0] /Users/muhtar/.gradle/caches/transforms-2/files-2.1/b37a656be7da34e79d326523a32fbcaa/lifecycle-runtime-2.2.0/AndroidManifest.xml:20:5-22:41
MERGED from [androidx.savedstate:savedstate:1.0.0] /Users/muhtar/.gradle/caches/transforms-2/files-2.1/29e9e6ac99026fff5bb21139b2ad74ac/jetified-savedstate-1.0.0/AndroidManifest.xml:20:5-22:41
MERGED from [androidx.savedstate:savedstate:1.0.0] /Users/muhtar/.gradle/caches/transforms-2/files-2.1/29e9e6ac99026fff5bb21139b2ad74ac/jetified-savedstate-1.0.0/AndroidManifest.xml:20:5-22:41
MERGED from [androidx.lifecycle:lifecycle-livedata:2.0.0] /Users/muhtar/.gradle/caches/transforms-2/files-2.1/15faa7fdc535e832982b4615d300cb77/lifecycle-livedata-2.0.0/AndroidManifest.xml:20:5-44
MERGED from [androidx.lifecycle:lifecycle-livedata:2.0.0] /Users/muhtar/.gradle/caches/transforms-2/files-2.1/15faa7fdc535e832982b4615d300cb77/lifecycle-livedata-2.0.0/AndroidManifest.xml:20:5-44
MERGED from [androidx.lifecycle:lifecycle-livedata-core:2.2.0] /Users/muhtar/.gradle/caches/transforms-2/files-2.1/27e0ecfbdce6f985a506017f5fd54aeb/lifecycle-livedata-core-2.2.0/AndroidManifest.xml:20:5-22:41
MERGED from [androidx.lifecycle:lifecycle-livedata-core:2.2.0] /Users/muhtar/.gradle/caches/transforms-2/files-2.1/27e0ecfbdce6f985a506017f5fd54aeb/lifecycle-livedata-core-2.2.0/AndroidManifest.xml:20:5-22:41
MERGED from [androidx.arch.core:core-runtime:2.1.0] /Users/muhtar/.gradle/caches/transforms-2/files-2.1/268ebc0b2bd661fb18fff0cceeca14c7/core-runtime-2.1.0/AndroidManifest.xml:20:5-22:41
MERGED from [androidx.arch.core:core-runtime:2.1.0] /Users/muhtar/.gradle/caches/transforms-2/files-2.1/268ebc0b2bd661fb18fff0cceeca14c7/core-runtime-2.1.0/AndroidManifest.xml:20:5-22:41
MERGED from [com.facebook.fresco:fbcore:2.0.0] /Users/muhtar/.gradle/caches/transforms-2/files-2.1/1d2be8689e9befa54c912fb5525227ee/jetified-fbcore-2.0.0/AndroidManifest.xml:5:5-7:41
MERGED from [com.facebook.fresco:fbcore:2.0.0] /Users/muhtar/.gradle/caches/transforms-2/files-2.1/1d2be8689e9befa54c912fb5525227ee/jetified-fbcore-2.0.0/AndroidManifest.xml:5:5-7:41
INJECTED from /Users/muhtar/Public/ReactNative/test/SWApp/android/app/src/main/AndroidManifest.xml
INJECTED from /Users/muhtar/Public/ReactNative/test/SWApp/android/app/src/main/AndroidManifest.xml
	android:targetSdkVersion
		INJECTED from /Users/muhtar/Public/ReactNative/test/SWApp/android/app/src/main/AndroidManifest.xml
		ADDED from /Users/muhtar/Public/ReactNative/test/SWApp/android/app/src/main/AndroidManifest.xml
		INJECTED from /Users/muhtar/Public/ReactNative/test/SWApp/android/app/src/main/AndroidManifest.xml
	android:minSdkVersion
		INJECTED from /Users/muhtar/Public/ReactNative/test/SWApp/android/app/src/main/AndroidManifest.xml
		ADDED from /Users/muhtar/Public/ReactNative/test/SWApp/android/app/src/main/AndroidManifest.xml
		INJECTED from /Users/muhtar/Public/ReactNative/test/SWApp/android/app/src/main/AndroidManifest.xml
uses-permission#android.permission.ACCESS_NETWORK_STATE
ADDED from [:react-native-community_netinfo] /Users/muhtar/Public/ReactNative/test/SWApp/node_modules/@react-native-community/netinfo/android/build/intermediates/library_manifest/release/AndroidManifest.xml:9:5-79
	android:name
		ADDED from [:react-native-community_netinfo] /Users/muhtar/Public/ReactNative/test/SWApp/node_modules/@react-native-community/netinfo/android/build/intermediates/library_manifest/release/AndroidManifest.xml:9:22-76
uses-permission#android.permission.ACCESS_WIFI_STATE
ADDED from [:react-native-community_netinfo] /Users/muhtar/Public/ReactNative/test/SWApp/node_modules/@react-native-community/netinfo/android/build/intermediates/library_manifest/release/AndroidManifest.xml:10:5-76
	android:name
		ADDED from [:react-native-community_netinfo] /Users/muhtar/Public/ReactNative/test/SWApp/node_modules/@react-native-community/netinfo/android/build/intermediates/library_manifest/release/AndroidManifest.xml:10:22-73
